info face=font size=62 bold=0 italic=0 charset= unicode= stretchH=100 smooth=1 aa=1 padding=2,2,2,2 spacing=0,0 outline=0
common lineHeight=73 base=73 scaleW=494 scaleH=512 pages=1 packed=0
page id=0 file="vi_common.png"
chars count=127
char id=65 x=2 y=2 width=35 height=45 xoffset=0 yoffset=28 xadvance=29 page=0 chnl=15
char id=193 x=2 y=49 width=35 height=56 xoffset=0 yoffset=16 xadvance=29 page=0 chnl=15
char id=192 x=2 y=107 width=35 height=56 xoffset=0 yoffset=16 xadvance=29 page=0 chnl=15
char id=7840 x=2 y=165 width=35 height=55 xoffset=0 yoffset=28 xadvance=29 page=0 chnl=15
char id=7842 x=2 y=222 width=35 height=61 xoffset=0 yoffset=12 xadvance=29 page=0 chnl=15
char id=195 x=2 y=285 width=35 height=56 xoffset=0 yoffset=17 xadvance=29 page=0 chnl=15
char id=258 x=2 y=343 width=35 height=56 xoffset=0 yoffset=16 xadvance=29 page=0 chnl=15
char id=7854 x=2 y=401 width=35 height=68 xoffset=0 yoffset=5 xadvance=29 page=0 chnl=15
char id=7856 x=39 y=2 width=35 height=67 xoffset=0 yoffset=5 xadvance=29 page=0 chnl=15
char id=7862 x=39 y=71 width=35 height=67 xoffset=0 yoffset=16 xadvance=29 page=0 chnl=15
char id=7858 x=39 y=140 width=35 height=73 xoffset=0 yoffset=0 xadvance=29 page=0 chnl=15
char id=7860 x=39 y=215 width=35 height=67 xoffset=0 yoffset=5 xadvance=29 page=0 chnl=15
char id=194 x=39 y=284 width=35 height=56 xoffset=0 yoffset=16 xadvance=29 page=0 chnl=15
char id=7844 x=39 y=342 width=36 height=63 xoffset=0 yoffset=9 xadvance=29 page=0 chnl=15
char id=7846 x=39 y=407 width=36 height=62 xoffset=-1 yoffset=11 xadvance=29 page=0 chnl=15
char id=7852 x=76 y=2 width=35 height=67 xoffset=0 yoffset=16 xadvance=29 page=0 chnl=15
char id=7848 x=76 y=71 width=41 height=59 xoffset=0 yoffset=14 xadvance=29 page=0 chnl=15
char id=7850 x=76 y=132 width=35 height=68 xoffset=0 yoffset=5 xadvance=29 page=0 chnl=15
char id=66 x=113 y=2 width=29 height=45 xoffset=3 yoffset=28 xadvance=29 page=0 chnl=15
char id=67 x=76 y=202 width=29 height=46 xoffset=2 yoffset=27 xadvance=28 page=0 chnl=15
char id=68 x=76 y=250 width=30 height=45 xoffset=4 yoffset=28 xadvance=31 page=0 chnl=15
char id=272 x=107 y=202 width=33 height=45 xoffset=0 yoffset=28 xadvance=31 page=0 chnl=15
char id=69 x=113 y=132 width=26 height=45 xoffset=3 yoffset=28 xadvance=25 page=0 chnl=15
char id=201 x=119 y=49 width=26 height=56 xoffset=3 yoffset=16 xadvance=25 page=0 chnl=15
char id=200 x=141 y=107 width=26 height=56 xoffset=3 yoffset=16 xadvance=25 page=0 chnl=15
char id=7864 x=147 y=2 width=26 height=55 xoffset=3 yoffset=28 xadvance=25 page=0 chnl=15
char id=7866 x=77 y=297 width=26 height=61 xoffset=3 yoffset=12 xadvance=25 page=0 chnl=15
char id=7868 x=77 y=360 width=26 height=56 xoffset=3 yoffset=17 xadvance=25 page=0 chnl=15
char id=202 x=77 y=418 width=26 height=56 xoffset=3 yoffset=16 xadvance=25 page=0 chnl=15
char id=7870 x=105 y=297 width=32 height=61 xoffset=3 yoffset=11 xadvance=25 page=0 chnl=15
char id=7872 x=105 y=360 width=31 height=61 xoffset=-3 yoffset=11 xadvance=25 page=0 chnl=15
char id=7878 x=105 y=423 width=26 height=67 xoffset=3 yoffset=16 xadvance=25 page=0 chnl=15
char id=7874 x=133 y=423 width=36 height=59 xoffset=3 yoffset=14 xadvance=25 page=0 chnl=15
char id=7876 x=139 y=249 width=26 height=68 xoffset=3 yoffset=5 xadvance=25 page=0 chnl=15
char id=70 x=108 y=249 width=25 height=45 xoffset=3 yoffset=28 xadvance=24 page=0 chnl=15
char id=71 x=147 y=59 width=29 height=46 xoffset=3 yoffset=27 xadvance=29 page=0 chnl=15
char id=72 x=175 y=2 width=29 height=45 xoffset=3 yoffset=28 xadvance=29 page=0 chnl=15
char id=73 x=138 y=360 width=9 height=45 xoffset=4 yoffset=28 xadvance=11 page=0 chnl=15
char id=205 x=142 y=165 width=13 height=56 xoffset=4 yoffset=16 xadvance=11 page=0 chnl=15
char id=204 x=157 y=165 width=13 height=56 xoffset=0 yoffset=16 xadvance=11 page=0 chnl=15
char id=7882 x=169 y=107 width=9 height=55 xoffset=4 yoffset=28 xadvance=11 page=0 chnl=15
char id=7880 x=149 y=319 width=14 height=61 xoffset=1 yoffset=12 xadvance=11 page=0 chnl=15
char id=296 x=178 y=49 width=20 height=56 xoffset=-2 yoffset=17 xadvance=11 page=0 chnl=15
char id=74 x=165 y=319 width=25 height=45 xoffset=1 yoffset=28 xadvance=24 page=0 chnl=15
char id=75 x=165 y=366 width=32 height=45 xoffset=3 yoffset=28 xadvance=28 page=0 chnl=15
char id=76 x=167 y=223 width=25 height=45 xoffset=3 yoffset=28 xadvance=24 page=0 chnl=15
char id=77 x=167 y=270 width=40 height=45 xoffset=3 yoffset=28 xadvance=41 page=0 chnl=15
char id=78 x=192 y=317 width=30 height=45 xoffset=3 yoffset=28 xadvance=31 page=0 chnl=15
char id=79 x=172 y=164 width=30 height=46 xoffset=2 yoffset=27 xadvance=29 page=0 chnl=15
char id=211 x=171 y=413 width=30 height=57 xoffset=2 yoffset=16 xadvance=29 page=0 chnl=15
char id=210 x=200 y=49 width=30 height=57 xoffset=2 yoffset=16 xadvance=29 page=0 chnl=15
char id=7884 x=194 y=212 width=30 height=56 xoffset=2 yoffset=27 xadvance=29 page=0 chnl=15
char id=7886 x=204 y=108 width=30 height=62 xoffset=2 yoffset=11 xadvance=29 page=0 chnl=15
char id=213 x=232 y=2 width=30 height=56 xoffset=2 yoffset=17 xadvance=29 page=0 chnl=15
char id=212 x=203 y=364 width=30 height=57 xoffset=2 yoffset=16 xadvance=29 page=0 chnl=15
char id=7888 x=203 y=423 width=34 height=64 xoffset=2 yoffset=10 xadvance=29 page=0 chnl=15
char id=7890 x=224 y=270 width=34 height=62 xoffset=-1 yoffset=11 xadvance=29 page=0 chnl=15
char id=7896 x=235 y=334 width=30 height=68 xoffset=2 yoffset=15 xadvance=29 page=0 chnl=15
char id=7892 x=226 y=172 width=39 height=60 xoffset=2 yoffset=13 xadvance=29 page=0 chnl=15
char id=7894 x=260 y=234 width=30 height=69 xoffset=2 yoffset=4 xadvance=29 page=0 chnl=15
char id=416 x=232 y=60 width=41 height=46 xoffset=2 yoffset=27 xadvance=40 page=0 chnl=15
char id=7898 x=236 y=108 width=41 height=58 xoffset=2 yoffset=15 xadvance=40 page=0 chnl=15
char id=7900 x=267 y=168 width=41 height=58 xoffset=2 yoffset=15 xadvance=40 page=0 chnl=15
char id=7906 x=275 y=2 width=41 height=57 xoffset=2 yoffset=27 xadvance=40 page=0 chnl=15
char id=7902 x=279 y=61 width=41 height=62 xoffset=2 yoffset=11 xadvance=40 page=0 chnl=15
char id=7904 x=318 y=2 width=41 height=57 xoffset=2 yoffset=16 xadvance=40 page=0 chnl=15
char id=80 x=239 y=404 width=28 height=45 xoffset=3 yoffset=28 xadvance=27 page=0 chnl=15
char id=81 x=239 y=451 width=32 height=51 xoffset=2 yoffset=27 xadvance=29 page=0 chnl=15
char id=82 x=267 y=305 width=30 height=45 xoffset=3 yoffset=28 xadvance=29 page=0 chnl=15
char id=83 x=267 y=352 width=30 height=46 xoffset=1 yoffset=27 xadvance=27 page=0 chnl=15
char id=84 x=269 y=400 width=29 height=45 xoffset=1 yoffset=28 xadvance=25 page=0 chnl=15
char id=85 x=273 y=447 width=29 height=45 xoffset=3 yoffset=28 xadvance=28 page=0 chnl=15
char id=218 x=292 y=228 width=29 height=57 xoffset=3 yoffset=16 xadvance=28 page=0 chnl=15
char id=217 x=310 y=125 width=29 height=57 xoffset=3 yoffset=16 xadvance=28 page=0 chnl=15
char id=7908 x=322 y=61 width=29 height=55 xoffset=3 yoffset=28 xadvance=28 page=0 chnl=15
char id=7910 x=299 y=287 width=29 height=61 xoffset=3 yoffset=12 xadvance=28 page=0 chnl=15
char id=360 x=300 y=350 width=29 height=56 xoffset=3 yoffset=17 xadvance=28 page=0 chnl=15
char id=431 x=323 y=184 width=43 height=45 xoffset=3 yoffset=28 xadvance=43 page=0 chnl=15
char id=7912 x=341 y=118 width=43 height=57 xoffset=3 yoffset=16 xadvance=43 page=0 chnl=15
char id=7914 x=304 y=408 width=43 height=57 xoffset=3 yoffset=16 xadvance=43 page=0 chnl=15
char id=7920 x=361 y=2 width=43 height=56 xoffset=3 yoffset=28 xadvance=43 page=0 chnl=15
char id=7916 x=330 y=231 width=43 height=61 xoffset=3 yoffset=12 xadvance=43 page=0 chnl=15
char id=7918 x=361 y=60 width=43 height=56 xoffset=3 yoffset=17 xadvance=43 page=0 chnl=15
char id=86 x=368 y=177 width=32 height=45 xoffset=0 yoffset=28 xadvance=27 page=0 chnl=15
char id=87 x=330 y=294 width=46 height=45 xoffset=0 yoffset=28 xadvance=42 page=0 chnl=15
char id=88 x=386 y=118 width=33 height=45 xoffset=0 yoffset=28 xadvance=28 page=0 chnl=15
char id=89 x=331 y=341 width=32 height=45 xoffset=0 yoffset=28 xadvance=27 page=0 chnl=15
char id=48 x=375 y=224 width=28 height=45 xoffset=1 yoffset=28 xadvance=25 page=0 chnl=15
char id=49 x=180 y=107 width=18 height=44 xoffset=3 yoffset=28 xadvance=25 page=0 chnl=15
char id=50 x=402 y=165 width=27 height=44 xoffset=1 yoffset=28 xadvance=25 page=0 chnl=15
char id=51 x=406 y=2 width=28 height=45 xoffset=1 yoffset=28 xadvance=25 page=0 chnl=15
char id=52 x=406 y=49 width=28 height=44 xoffset=1 yoffset=28 xadvance=25 page=0 chnl=15
char id=53 x=421 y=95 width=27 height=44 xoffset=1 yoffset=29 xadvance=25 page=0 chnl=15
char id=54 x=436 y=2 width=28 height=45 xoffset=1 yoffset=28 xadvance=25 page=0 chnl=15
char id=55 x=304 y=467 width=27 height=43 xoffset=1 yoffset=29 xadvance=25 page=0 chnl=15
char id=56 x=349 y=388 width=28 height=45 xoffset=1 yoffset=28 xadvance=25 page=0 chnl=15
char id=57 x=365 y=341 width=28 height=45 xoffset=1 yoffset=28 xadvance=25 page=0 chnl=15
char id=126 x=273 y=494 width=29 height=12 xoffset=4 yoffset=51 xadvance=32 page=0 chnl=15
char id=96 x=172 y=212 width=12 height=9 xoffset=-1 yoffset=26 xadvance=9 page=0 chnl=15
char id=33 x=209 y=270 width=9 height=45 xoffset=5 yoffset=28 xadvance=13 page=0 chnl=15
char id=64 x=378 y=271 width=46 height=46 xoffset=2 yoffset=27 xadvance=45 page=0 chnl=15
char id=35 x=333 y=467 width=30 height=43 xoffset=0 yoffset=29 xadvance=25 page=0 chnl=15
char id=36 x=405 y=211 width=29 height=55 xoffset=1 yoffset=24 xadvance=25 page=0 chnl=15
char id=37 x=431 y=141 width=45 height=47 xoffset=2 yoffset=27 xadvance=43 page=0 chnl=15
char id=94 x=226 y=234 width=31 height=24 xoffset=3 yoffset=29 xadvance=32 page=0 chnl=15
char id=38 x=365 y=435 width=36 height=45 xoffset=1 yoffset=28 xadvance=32 page=0 chnl=15
char id=42 x=206 y=2 width=24 height=23 xoffset=0 yoffset=28 xadvance=19 page=0 chnl=15
char id=40 x=450 y=49 width=16 height=56 xoffset=3 yoffset=28 xadvance=13 page=0 chnl=15
char id=41 x=395 y=319 width=16 height=56 xoffset=0 yoffset=28 xadvance=13 page=0 chnl=15
char id=45 x=138 y=413 width=18 height=8 xoffset=3 yoffset=51 xadvance=18 page=0 chnl=15
char id=95 x=226 y=260 width=31 height=3 xoffset=0 yoffset=77 xadvance=26 page=0 chnl=15
char id=46 x=386 y=165 width=9 height=10 xoffset=3 yoffset=63 xadvance=10 page=0 chnl=15
char id=58 x=264 y=2 width=9 height=33 xoffset=3 yoffset=40 xadvance=10 page=0 chnl=15
char id=39 x=421 y=141 width=8 height=20 xoffset=4 yoffset=28 xadvance=11 page=0 chnl=15
char id=59 x=436 y=49 width=9 height=43 xoffset=3 yoffset=40 xadvance=10 page=0 chnl=15
char id=44 x=264 y=37 width=9 height=20 xoffset=3 yoffset=63 xadvance=10 page=0 chnl=15
char id=47 x=395 y=377 width=21 height=46 xoffset=0 yoffset=27 xadvance=16 page=0 chnl=15
char id=63 x=466 y=2 width=26 height=45 xoffset=2 yoffset=28 xadvance=25 page=0 chnl=15
char id=60 x=2 y=476 width=32 height=33 xoffset=3 yoffset=40 xadvance=32 page=0 chnl=15
char id=62 x=36 y=476 width=32 height=33 xoffset=3 yoffset=40 xadvance=32 page=0 chnl=15
char id=91 x=413 y=319 width=15 height=56 xoffset=5 yoffset=28 xadvance=15 page=0 chnl=15
char id=93 x=403 y=425 width=15 height=56 xoffset=0 yoffset=28 xadvance=15 page=0 chnl=15
char id=123 x=468 y=49 width=16 height=56 xoffset=2 yoffset=28 xadvance=15 page=0 chnl=15
char id=125 x=420 y=377 width=16 height=56 xoffset=2 yoffset=28 xadvance=15 page=0 chnl=15
char id=61 x=70 y=476 width=32 height=22 xoffset=3 yoffset=46 xadvance=32 page=0 chnl=15
char id=32 x=267 y=400 width=0 height=0 xoffset=0 yoffset=72 xadvance=10 page=0 chnl=15
char id=43 x=450 y=107 width=32 height=32 xoffset=3 yoffset=41 xadvance=32 page=0 chnl=15
char id=32 x=0 y=0 width=0 height=0 xoffset=3 yoffset=41 xadvance=10 page=0 chnl=15